LCABL_03500
LCABL_03930
LCABL_04060
LCABL_04290
LCABL_05010
LCABL_05140
LCABL_06930
LCABL_07340
LCABL_08380
LCABL_10630
LCABL_11300
LCABL_11310
LCABL_11320
LCABL_11330
LCABL_12660
LCABL_12870
LCABL_13680
LCABL_14200
LCABL_15240
LCABL_15360
LCABL_15370
LCABL_15380
LCABL_15390
LCABL_15840
LCABL_15850
LCABL_16690
LCABL_18750
LCABL_19200
LCABL_19970
LCABL_20410
LCABL_21660
LCABL_22100
LCABL_22410
LCABL_23150
LCABL_23660
LCABL_24040
LCABL_25210
LCABL_27160
LCABL_27730
LCABL_28110
LCABL_28330
LCABL_28740
LCABL_28880
HN6_00106
HN6_00130
HN6_00131
HN6_00132
HN6_00133
HN6_00349
HN6_00360
HN6_00431
HN6_00498
HN6_00640
HN6_00717
HN6_00718
HN6_00963
HN6_00964
HN6_00965
HN6_00966
HN6_00978
HN6_01031
HN6_01064
HN6_01147
HN6_01245
HN6_01250
HN6_01257
HN6_01344
HN6_01425
HN6_01518
HN6_01645
HN6_01646
LSA_01520
LSA_02080
LSA_02550
LSA_03250
LSA_03840
LSA_04440
LSA_04670
LSA_05270
LSA_05280
LSA_05290
LSA_05300
LSA_05790
LSA_06460
LSA_07670
LSA_09870
LSA_09960
LSA_11450
LSA_12190
LSA_12330
LSA_12380
LSA_13040
LAR_0140
LAR_0162
LAR_0185
LAR_0228
LAR_0229
LAR_0230
LAR_0279
LAR_0310
LAR_0369
LAR_0381
LAR_0382
LAR_0383
LAR_0384
LAR_0415
LAR_0586
LAR_0608
LAR_0609
LAR_0610
LAR_0611
LAR_0688
LAR_0722
LAR_0853
LAR_0979
LAR_1139
LAR_1206
LAR_1406
LAR_1444
LAR_1448
LAR_1489
LAR_1519
LAR_1618
LAR_1721
LAR_1785
LVIS_0119
LVIS_0141
LVIS_0254
LVIS_0465
LVIS_0514
LVIS_0570
LVIS_0661
LVIS_0662
LVIS_0663
LVIS_0664
LVIS_0765
LVIS_0869
LVIS_0996
LVIS_1312
LVIS_1365
LVIS_1407
LVIS_1408
LVIS_1409
LVIS_1410
LVIS_1433
LVIS_1764
LVIS_1811
LVIS_1907
LVIS_1908
LVIS_2042
LVIS_2169
LC40_0173
LC40_0201
LC40_0246
LC40_0247
LC40_0257
LC40_0258
LC40_0259
LC40_0290
LC40_0292
LC40_0410
LC40_0532
LC40_0571
LC40_0740
LC40_0741
LC40_0742
LC40_0743
LC40_0825
LC40_0923
LC40_0964
LC40_0999
LC40_1053
LC40_1069
LC40_1078
LGAS_0152
LGAS_0167
LGAS_0185
LGAS_0190
LGAS_0196
LGAS_0197
LGAS_0269
LGAS_0327
LGAS_0332
LGAS_0467
LGAS_0838
LGAS_0849
LGAS_0881
LGAS_0882
LGAS_1188
LGAS_1256
LGAS_1305
LGAS_1306
LGAS_1307
LGAS_1308
LGAS_1319
LGAS_1320
LGAS_1561
LGAS_1668
LGAS_1688
LGAS_1692
LGAS_1754
LGAS_1760
LGAS_1761
LJ0149
LJ0164
LJ0182
LJ0188
LJ0194
LJ0195
LJ0274
LJ0371
LJ0375
LJ0380
LJ0537
LJ0538
LJ0544
LJ0606
LJ0610
LJ0636
LJ0639
LJ0687
LJ0712
LJ0736
LJ0861
LJ0862
LJ0872
LJ0873
LJ0874
LJ0875
LJ0924
LJ0987
LJ1079
LJ1080
LJ1120
LJ1246
LJ1403
LJ1416
LJ1766
LBHH_0044
LBHH_0190
LBHH_0256
LBHH_0315
LBHH_0318
LBHH_0480
LBHH_0599
LBHH_0637
LBHH_1080
LBHH_1152
LBHH_1153
LBHH_1205
LBHH_1223
LBHH_1228
LBHH_1231
LBHH_1240
LBHH_1281
LBHH_1369
LBHH_1392
LBHH_1415
LBHH_1416
LBHH_1417
LBHH_1433
LBHH_1508
LBHH_1511
LBHH_1609
LBHH_1624
LBHH_1636
LBHH_1706
LBHH_1814
LBHH_1858
