LCABL_03440
LCABL_15360
LCABL_15370
LCABL_15380
LCABL_15390
LCABL_15450
LCABL_16690
LCABL_20410
LCABL_25800
HN6_00130
HN6_00131
HN6_00132
HN6_00133
HN6_00349
HN6_00580
HN6_01107
HN6_01108
HN6_01570
LAR_0608
LAR_0609
LAR_0610
LAR_0611
LAR_1439
LAR_1440
LVIS_0714
LVIS_1407
LVIS_1408
LVIS_1409
LVIS_1410
LC40_0614
LC40_0640
LC40_0740
LC40_0741
LC40_0742
LC40_0743
LGAS_0049
LGAS_0152
LGAS_0847
LGAS_0848
LJ0051
LJ0149
LJ1404
LJ1405
LBHH_1207
LBHH_1208
LBHH_1321
LBHH_1624
