LCABL_03990
LCABL_12560
LCABL_18350
LCABL_28610
LCABL_28620
LCABL_29070
LCABL_29090
LCABL_29110
LCABL_29200
LCABL_29250
HN6_00803
HN6_01053
HN6_01529
HN6_01531
HN6_01581
HN6_01671
HN6_01675
LSA_05150
LSA_06700
LSA_12760
LAR_0361
LAR_0469
LAR_0470
LAR_1100
LVIS_0127
LVIS_0135
LVIS_0138
LVIS_0139
LVIS_0146
LVIS_0150
LVIS_0183
LVIS_0184
LVIS_0326
LVIS_0644
LVIS_0960
LVIS_1740
LVIS_1741
LVIS_1742
LC40_0237
LC40_0284
LC40_0285
LC40_0980
LC40_1123
LGAS_0702
LGAS_0766
LJ1535
LJ1593
LBHH_0765
LBHH_1493
LBHH_1733
