LCABL_23470
HN6_00149
HN6_00150
HN6_00151
HN6_00848
LSA_07110
LSA_12930
LSA_12940
LAR_0833
LAR_0834
LAR_1027
LAR_1030
LVIS_0066
LVIS_0067
LVIS_1637
LVIS_1920
LVIS_1987
LVIS_1988
LVIS_2278
LC40_0628
LC40_0629
LC40_0713
LC40_1048
LGAS_0051
LGAS_1845
LJ0053
