LCABL_00020
LCABL_01220
LCABL_02760
LCABL_08150
LCABL_08900
LCABL_10620
LCABL_11660
LCABL_13760
LCABL_13810
LCABL_15520
LCABL_15800
LCABL_15830
LCABL_15980
LCABL_16070
LCABL_16720
LCABL_16730
LCABL_16740
LCABL_16750
LCABL_16760
LCABL_16770
LCABL_16780
LCABL_16800
LCABL_16920
LCABL_16930
LCABL_17040
LCABL_17320
LCABL_17910
LCABL_17970
LCABL_18430
LCABL_18870
LCABL_19280
LCABL_19520
LCABL_23870
LCABL_24390
LCABL_24410
LCABL_24450
LCABL_24690
LCABL_25100
LCABL_25280
LCABL_26450
LCABL_26800
LCABL_26820
LCABL_27380
LCABL_27400
LCABL_28930
HN6_00002
HN6_00180
HN6_00181
HN6_00182
HN6_00183
HN6_00184
HN6_00188
HN6_00189
HN6_00283
HN6_00284
HN6_00385
HN6_00450
HN6_00502
HN6_00508
HN6_00526
HN6_00530
HN6_00598
HN6_00600
HN6_00622
HN6_00675
HN6_00685
HN6_00686
HN6_00687
HN6_00688
HN6_00716
HN6_00741
HN6_00951
HN6_01010
HN6_01011
HN6_01013
HN6_01016
HN6_01017
HN6_01028
HN6_01111
HN6_01184
HN6_01442
LSA_00020
LSA_00350
LSA_02410
LSA_02530
LSA_04090
LSA_04100
LSA_04480
LSA_04680
LSA_04690
LSA_04730
LSA_04810
LSA_04830
LSA_05170
LSA_05400
LSA_05870
LSA_05880
LSA_06120
LSA_06390
LSA_06640
LSA_07220
LSA_07230
LSA_07240
LSA_07500
LSA_07570
LSA_07680
LSA_08230
LSA_08300
LSA_09470
LSA_09520
LSA_09710
LSA_09730
LSA_11070
LSA_11410
LSA_11420
LSA_12200
LSA_12210
LSA_2p00480
LAR_0002
LAR_0068
LAR_0080
LAR_0081
LAR_0107
LAR_0108
LAR_0117
LAR_0118
LAR_0119
LAR_0120
LAR_0121
LAR_0192
LAR_0220
LAR_0221
LAR_0248
LAR_0288
LAR_0311
LAR_0312
LAR_0315
LAR_0319
LAR_0321
LAR_0365
LAR_0397
LAR_0441
LAR_0446
LAR_0621
LAR_0623
LAR_0659
LAR_0667
LAR_0721
LAR_0732
LAR_0739
LAR_0876
LAR_0877
LAR_0911
LAR_0983
LAR_1018
LAR_1108
LAR_1148
LAR_1181
LAR_1241
LAR_1242
LAR_1249
LAR_1368
LAR_1401
LAR_1402
LAR_1546
LVIS_0002
LVIS_0040
LVIS_0283
LVIS_0416
LVIS_0486
LVIS_0487
LVIS_0576
LVIS_0595
LVIS_0596
LVIS_0600
LVIS_0604
LVIS_0606
LVIS_0645
LVIS_0678
LVIS_0763
LVIS_0776
LVIS_0784
LVIS_0829
LVIS_0830
LVIS_0831
LVIS_0968
LVIS_1007
LVIS_1042
LVIS_1286
LVIS_1291
LVIS_1341
LVIS_1348
LVIS_1367
LVIS_1394
LVIS_1396
LVIS_1591
LVIS_1593
LVIS_1664
LVIS_1697
LVIS_1698
LVIS_1813
LVIS_1898
LVIS_1932
LVIS_2142
LVIS_2188
LVIS_2228
LVIS_2229
LC40_0002
LC40_0147
LC40_0203
LC40_0204
LC40_0205
LC40_0242
LC40_0289
LC40_0306
LC40_0419
LC40_0478
LC40_0491
LC40_0492
LC40_0583
LC40_0597
LC40_0659
LC40_0757
LC40_0780
LC40_0783
LC40_0841
LC40_0867
LC40_0955
LC40_0961
LC40_0962
LC40_1060
LC40_1062
LC40_1082
LGAS_0002
LGAS_0124
LGAS_0138
LGAS_0202
LGAS_0225
LGAS_0226
LGAS_0284
LGAS_0285
LGAS_0316
LGAS_0335
LGAS_0368
LGAS_0372
LGAS_0374
LGAS_0447
LGAS_0537
LGAS_0759
LGAS_0803
LGAS_0809
LGAS_0830
LGAS_0880
LGAS_0891
LGAS_1012
LGAS_1013
LGAS_1067
LGAS_1086
LGAS_1087
LGAS_1088
LGAS_1089
LGAS_1090
LGAS_1091
LGAS_1092
LGAS_1093
LGAS_1094
LGAS_1173
LGAS_1245
LGAS_1249
LGAS_1294
LGAS_1325
LGAS_1421
LGAS_1503
LGAS_1647
LGAS_1705
LJ0002
LJ0124
LJ0137
LJ0199
LJ0223
LJ0224
LJ0332
LJ0333
LJ0361
LJ0397
LJ0423
LJ0427
LJ0429
LJ0501
LJ0591
LJ0649
LJ0763
LJ0852
LJ0886
LJ0929
LJ0933
LJ1004
LJ1077
LJ1089
LJ1184
LJ1185
LJ1230
LJ1275
LJ1276
LJ1277
LJ1278
LJ1279
LJ1280
LJ1281
LJ1282
LJ1283
LJ1471
LJ1492
LJ1498
LJ1542
LJ1651
LBHH_0002
LBHH_0061
LBHH_0168
LBHH_0207
LBHH_0226
LBHH_0227
LBHH_0270
LBHH_0271
LBHH_0303
LBHH_0328
LBHH_0354
LBHH_0358
LBHH_0360
LBHH_0420
LBHH_0448
LBHH_0560
LBHH_0630
LBHH_0704
LBHH_0705
LBHH_0706
LBHH_0708
LBHH_0709
LBHH_0710
LBHH_0711
LBHH_0758
LBHH_0805
LBHH_0811
LBHH_0902
LBHH_0903
LBHH_1007
LBHH_1143
LBHH_1154
LBHH_1156
LBHH_1217
LBHH_1266
LBHH_1358
LBHH_1362
LBHH_1409
LBHH_1558
LBHH_1667
LBHH_1881
LBHH_1883
