LCABL_01130
LCABL_02130
LCABL_05060
LCABL_06940
LCABL_11830
LCABL_12800
LCABL_16750
LCABL_16760
LCABL_16780
LCABL_18680
LCABL_19690
LCABL_23430
LCABL_23560
LCABL_24350
LCABL_24600
LCABL_27230
LCABL_27240
LCABL_29320
LCABL_30160
LCABL_30170
LCABL_30650
HN6_00010
HN6_00014
HN6_00180
HN6_00182
HN6_00183
HN6_00253
HN6_00254
HN6_00473
HN6_00501
HN6_00586
HN6_00685
HN6_00686
HN6_00854
HN6_01007
HN6_01079
HN6_01080
HN6_01366
HN6_01443
HN6_01555
LSA_01440
LSA_03050
LSA_04360
LSA_05480
LSA_05720
LSA_05880
LSA_07230
LSA_07240
LSA_10470
LSA_12050
LAR_0033
LAR_0066
LAR_0080
LAR_0081
LAR_0117
LAR_0130
LAR_0135
LAR_0189
LAR_0237
LAR_0270
LAR_0405
LAR_0702
LAR_0703
LAR_0876
LAR_0877
LAR_1135
LAR_1188
LAR_1767
LAR_1782
LAR_1814
LVIS_0079
LVIS_0227
LVIS_0228
LVIS_0323
LVIS_0687
LVIS_0829
LVIS_0830
LVIS_0990
LVIS_1053
LVIS_1499
LVIS_1501
LVIS_1649
LVIS_1836
LVIS_1847
LC40_0034
LC40_0035
LC40_0089
LC40_0094
LC40_0268
LC40_0438
LC40_0491
LC40_0492
LC40_0526
LC40_0527
LC40_0528
LC40_0757
LC40_0783
LC40_0823
LC40_1015
LC40_1026
LC40_1028
LC40_1029
LC40_1164
LGAS_0135
LGAS_0390
LGAS_0391
LGAS_0507
LGAS_0719
LGAS_0851
LGAS_1012
LGAS_1013
LGAS_1087
LGAS_1088
LGAS_1090
LGAS_1379
LGAS_1626
LGAS_1732
LGAS_1786
LJ0135
LJ0442
LJ0443
LJ0511
LJ0566
LJ0671
LJ0713
LJ1184
LJ1185
LJ1276
LJ1277
LJ1279
LJ1401
LJ1581
LJ1614
LBHH_0165
LBHH_0539
LBHH_0612
LBHH_0708
LBHH_0710
LBHH_0711
LBHH_0902
LBHH_0903
LBHH_1635
LBHH_1654
LBHH_1708
LBHH_1710
LBHH_1724
LBHH_1790
LBHH_1834
LBHH_1955
LBHH_1956
LBHH_1959
