LCABL_01010
LCABL_01030
LCABL_02990
LCABL_04030
LCABL_05440
LCABL_05450
LCABL_06620
LCABL_06830
LCABL_06930
LCABL_08310
LCABL_09430
LCABL_10070
LCABL_14180
LCABL_14190
LCABL_15190
LCABL_23330
LCABL_23340
LCABL_27160
LCABL_27730
LCABL_29320
HN6_00022
HN6_00023
HN6_00194
HN6_00260
HN6_00411
HN6_00712
HN6_00872
HN6_00974
HN6_01147
HN6_01246
HN6_01266
HN6_01344
HN6_01415
HN6_01435
HN6_01436
HN6_01655
HN6_01658
HN6_01659
LSA_00430
LSA_00490
LSA_01240
LSA_04660
LSA_04670
LSA_08520
LSA_09870
LSA_10000
LSA_11450
LSA_13040
LSA_1p00140
LAR_0185
LAR_0281
LAR_0337
LAR_0582
LAR_0591
LAR_0598
LAR_0688
LAR_0853
LAR_0993
LAR_1020
LAR_1021
LAR_1206
LAR_1229
LAR_1459
LAR_1486
LAR_1676
LAR_1677
LAR_1785
LAR_1793
LVIS_0300
LVIS_0340
LVIS_0514
LVIS_1437
LVIS_1523
LC40_0173
LC40_0239
LC40_0243
LC40_0244
LC40_0246
LC40_0410
LC40_0532
LC40_0535
LC40_0536
LC40_0541
LC40_0542
LC40_0544
LC40_0559
LC40_0564
LC40_0617
LC40_0632
LC40_0633
LC40_0745
LC40_0861
LC40_0923
LC40_1013
LGAS_0269
LGAS_0456
LGAS_0849
LGAS_1075
LGAS_1077
LGAS_1078
LGAS_1192
LGAS_1662
LJ0274
LJ0631
LJ0677
LJ0915
LJ0983
LJ1328
LJ1329
LJ1403
LBHH_0256
LBHH_0430
LBHH_0599
LBHH_0647
LBHH_0674
LBHH_0675
LBHH_0682
LBHH_0831
LBHH_0832
LBHH_0848
LBHH_0850
LBHH_0986
LBHH_1205
LBHH_1248
LBHH_1255
LBHH_1285
LBHH_1377
LBHH_1710
LBHH_1887
LBHH_1888
