LCABL_00960
LCABL_00970
LCABL_00980
LCABL_00990
LCABL_01000
LCABL_01010
LCABL_01020
LCABL_01030
LCABL_02120
LCABL_09310
LCABL_13750
LCABL_13970
LCABL_20100
LCABL_23330
LCABL_23340
LCABL_23390
LCABL_27310
HN6_00012
HN6_00113
HN6_00255
HN6_00260
HN6_00295
HN6_00434
HN6_00435
HN6_00525
HN6_00563
HN6_00619
HN6_00692
HN6_00710
HN6_00829
HN6_00872
HN6_01223
HN6_01266
LSA_00420
LSA_00430
LSA_00440
LSA_00450
LSA_00460
LSA_00470
LSA_00480
LSA_00490
LSA_00870
LSA_02330
LSA_04190
LSA_05950
LSA_08440
LSA_08580
LSA_09530
LSA_10700
LAR_0041
LAR_0181
LAR_0234
LAR_0366
LAR_0440
LAR_0590
LAR_0591
LAR_0592
LAR_0593
LAR_0594
LAR_0595
LAR_0596
LAR_0597
LAR_0598
LAR_0715
LAR_1133
LAR_1224
LAR_1813
LVIS_0070
LVIS_0192
LVIS_0253
LVIS_0503
LVIS_0864
LVIS_1292
LVIS_2269
LC40_0022
LC40_0041
LC40_0099
LC40_0150
LC40_0301
LC40_0523
LC40_0541
LC40_0559
LC40_0560
LC40_0562
LC40_0563
LC40_0564
LC40_0665
LC40_0667
LC40_0745
LC40_1162
LC40_1163
LGAS_0264
LGAS_1075
LGAS_1077
LGAS_1078
LGAS_1128
LGAS_1250
LGAS_1733
LJ0269
LJ0565
LJ0928
LJ1390
LBHH_0250
LBHH_0848
LBHH_0850
LBHH_1171
LBHH_1248
LBHH_1249
LBHH_1250
LBHH_1251
LBHH_1252
LBHH_1253
LBHH_1254
LBHH_1255
LBHH_1256
LBHH_1791
LBHH_1835
