LCABL_03540
LCABL_05060
LCABL_06940
LCABL_08170
LCABL_18680
LCABL_18700
LCABL_20290
LCABL_21620
LCABL_25350
LCABL_25360
LCABL_27700
LCABL_30160
LCABL_30170
HN6_00118
HN6_00253
HN6_00254
HN6_00501
HN6_01041
HN6_01056
HN6_01079
HN6_01354
HN6_01355
HN6_01394
LSA_00680
LSA_02370
LSA_03150
LSA_04360
LSA_10470
LSA_2p00480
LAR_0032
LAR_0237
LAR_0248
LAR_0333
LAR_0334
LAR_0335
LAR_0419
LAR_0420
LAR_0435
LAR_0702
LAR_0703
LAR_1135
LAR_1188
LAR_1539
LVIS_0538
LVIS_0990
LVIS_1426
LVIS_1783
LVIS_1932
LVIS_2023
LVIS_2026
LVIS_2027
LVIS_2207
LVIS_2208
LVIS_2232
LC40_0214
LC40_0215
LC40_0216
LC40_0488
LC40_0489
LC40_0490
LC40_0597
LC40_0762
LC40_0823
LC40_0891
LC40_1028
LC40_1029
LC40_1035
LC40_1058
LGAS_0052
LGAS_0507
LGAS_1044
LGAS_1379
LGAS_1849
LGAS_1881
LJ0054
LJ0713
LJ1226
LJ1614
LJ1843
LBHH_0109
LBHH_0612
LBHH_1113
LBHH_1692
LBHH_1734
