LCABL_02210
LCABL_02220
LCABL_10630
LCABL_15420
LCABL_18750
LCABL_21790
LCABL_21800
LCABL_21810
LCABL_21820
LCABL_22200
LCABL_22210
LCABL_22220
HN6_00498
HN6_00574
HN6_00978
HN6_01318
HN6_01319
HN6_01320
HN6_01321
LSA_06460
LSA_12330
LAR_0369
LAR_0613
LAR_1002
LAR_1003
LAR_1139
LVIS_0996
LVIS_1404
LVIS_1907
LC40_0076
LC40_0077
LC40_0078
LC40_0247
LC40_0825
LC40_0895
LGAS_0197
LGAS_1133
LGAS_1134
LGAS_1135
LGAS_1136
LGAS_1319
LJ0195
LJ0862
LJ1049
LJ1050
LJ1051
LJ1052
