LCABL_01350
LCABL_02100
LCABL_02120
LCABL_08720
LCABL_10200
LCABL_11680
LCABL_13750
LCABL_14990
LCABL_15000
LCABL_15010
LCABL_15020
LCABL_17030
LCABL_19300
LCABL_19450
LCABL_27310
LCABL_27370
HN6_00012
HN6_00067
HN6_00286
HN6_00295
HN6_00438
HN6_00447
HN6_00525
HN6_00537
HN6_00774
HN6_00867
HN6_00868
HN6_00869
HN6_00870
HN6_00894
HN6_00950
HN6_01283
LSA_04110
LSA_04190
LSA_05420
LSA_05950
LSA_05980
LSA_06110
LSA_07120
LSA_07970
LSA_09330
LSA_09370
LSA_09530
LSA_10120
LSA_10130
LSA_10140
LSA_10150
LAR_0223
LAR_0234
LAR_0398
LAR_0440
LAR_0459
LAR_0465
LAR_0568
LAR_0569
LAR_0570
LAR_0571
LAR_0867
LAR_1184
LAR_1203
LAR_1450
LAR_1726
LAR_1813
LVIS_0070
LVIS_0271
LVIS_0494
LVIS_0503
LVIS_0681
LVIS_0851
LVIS_1047
LVIS_1268
LVIS_1276
LVIS_1292
LVIS_1449
LVIS_1450
LVIS_1451
LVIS_1452
LVIS_1489
LVIS_1825
LVIS_1826
LVIS_2055
LC40_0083
LC40_0148
LC40_0150
LC40_0264
LC40_0301
LC40_0318
LC40_0400
LC40_0401
LC40_0402
LC40_0765
LC40_0842
LC40_0849
LC40_0966
LC40_1006
LC40_1162
LC40_1163
LGAS_0107
LGAS_0227
LGAS_0264
LGAS_0438
LGAS_0465
LGAS_1025
LGAS_1204
LGAS_1205
LGAS_1206
LGAS_1207
LGAS_1250
LGAS_1293
LGAS_1427
LGAS_1452
LGAS_1733
LJ0108
LJ0225
LJ0269
LJ0492
LJ0565
LJ0685
LJ0887
LJ0928
LJ0969
LJ0970
LJ0971
LJ0972
LJ1197
LJ1663
LJ1678
LBHH_0146
LBHH_0228
LBHH_0250
LBHH_0472
LBHH_0507
LBHH_0525
LBHH_0892
LBHH_1297
LBHH_1298
LBHH_1299
LBHH_1300
LBHH_1408
LBHH_1791
LBHH_1835
