LCABL_01600
LCABL_02170
LCABL_06930
LCABL_07810
LCABL_11620
LCABL_16340
LCABL_20050
LCABL_22900
LCABL_22910
LCABL_22920
LCABL_22940
LCABL_23490
LCABL_27160
LCABL_27730
HN6_00024
HN6_00115
HN6_00425
HN6_00426
HN6_00427
HN6_00920
HN6_00952
HN6_01104
HN6_01147
HN6_01344
HN6_01623
LSA_01210
LSA_01440
LSA_04670
LSA_05370
LSA_08790
LSA_09870
LSA_11450
LSA_11910
LSA_11920
LSA_11930
LSA_11950
LSA_13040
LAR_0029
LAR_0050
LAR_0185
LAR_0189
LAR_0393
LAR_0543
LAR_0688
LAR_0853
LAR_0918
LAR_0919
LAR_0920
LAR_0922
LAR_1206
LAR_1621
LAR_1622
LAR_1623
LAR_1628
LAR_1633
LAR_1634
LAR_1635
LAR_1724
LAR_1785
LVIS_0129
LVIS_0514
LVIS_0674
LVIS_0926
LVIS_0927
LVIS_0928
LVIS_0930
LVIS_1190
LVIS_1601
LVIS_1602
LVIS_1603
LVIS_1608
LVIS_1613
LVIS_1614
LVIS_1615
LVIS_2165
LVIS_2191
LVIS_2218
LC40_0173
LC40_0225
LC40_0226
LC40_0246
LC40_0263
LC40_0370
LC40_0410
LC40_0436
LC40_0501
LC40_0532
LC40_0643
LC40_0923
LC40_1018
LC40_1026
LGAS_0269
LGAS_0431
LGAS_0849
LGAS_1269
LGAS_1296
LGAS_1374
LJ0274
LJ0485
LJ0884
LJ0912
LJ1403
LJ1609
LBHH_0256
LBHH_0599
LBHH_0998
LBHH_1205
LBHH_1378
LBHH_1411
LBHH_1491
LBHH_1630
LBHH_1898
LBHH_1899
LBHH_1900
LBHH_1902
LBHH_1938
LBHH_1940
