LCABL_03130
LCABL_03150
LCABL_03160
LCABL_03170
LCABL_07600
LCABL_14780
LCABL_14790
LCABL_15200
LCABL_18340
HN6_00201
HN6_00550
HN6_00713
HN6_00885
HN6_00886
HN6_01330
LSA_06710
LSA_09240
LSA_09250
LSA_09990
LSA_11830
LAR_0488
LAR_0489
LAR_0583
LAR_0902
LAR_0968
LAR_0969
LAR_0970
LAR_1099
LAR_1205
LVIS_0959
LVIS_1255
LVIS_1256
LVIS_1436
LVIS_1830
LVIS_1934
LVIS_2097
LVIS_2098
LVIS_2099
LC40_0337
LC40_0338
LC40_0521
LC40_0529
LC40_0530
LC40_0657
LC40_1033
LGAS_0350
LGAS_1191
LGAS_1223
LGAS_1224
LGAS_1782
LJ0406
LJ0515
LJ0953
LJ0954
LJ0984
LBHH_0337
LBHH_0766
LBHH_1284
LBHH_1337
LBHH_1338
LBHH_1944
