LCABL_12550
LCABL_17130
LCABL_17140
LCABL_17150
LCABL_17950
LCABL_18520
LCABL_20030
LCABL_20040
LCABL_20050
LCABL_23480
LCABL_24800
LCABL_24810
LCABL_27570
HN6_00201
HN6_00218
HN6_00227
HN6_00481
HN6_00487
HN6_00504
HN6_00601
HN6_00602
HN6_00603
HN6_00604
HN6_00849
LSA_01210
LSA_03920
LSA_06600
LSA_06960
LSA_06970
LSA_06980
LSA_06990
LSA_07030
LSA_08270
LSA_08570
LAR_0050
LAR_0196
LAR_0206
LAR_0649
LAR_0663
LAR_0859
LAR_0860
LAR_0861
LAR_0862
LAR_0902
LAR_1031
LAR_1113
LVIS_0450
LVIS_0460
LVIS_0858
LVIS_0859
LVIS_0860
LVIS_0861
LVIS_0975
LVIS_1345
LVIS_1363
LVIS_1638
LVIS_2218
LC40_0132
LC40_0139
LC40_0473
LC40_0480
LC40_0643
LC40_0657
LC40_0714
LC40_0772
LC40_0773
LC40_0774
LC40_0816
LC40_1033
LGAS_0350
LGAS_0352
LGAS_0754
LGAS_0805
LGAS_1033
LGAS_1034
LGAS_1035
LGAS_1036
LGAS_1372
LGAS_1373
LGAS_1374
LJ0406
LJ0408
LJ1205
LJ1206
LJ1207
LJ1208
LJ1496
LJ1547
LJ1607
LJ1608
LJ1609
LBHH_0337
LBHH_0432
LBHH_0753
LBHH_0881
LBHH_0882
LBHH_0883
LBHH_0884
LBHH_1489
LBHH_1490
LBHH_1491
