LCABL_05060
LCABL_06940
LCABL_07100
LCABL_18680
LCABL_27230
LCABL_27240
HN6_00501
HN6_01079
LAR_0420
LAR_0936
LAR_0937
LAR_0938
LAR_0939
LAR_0951
LAR_1135
LVIS_0990
LVIS_2023
LVIS_2207
LVIS_2247
LC40_0215
LC40_0526
LC40_0527
LC40_0528
LC40_0689
LC40_0690
LC40_0697
LC40_0823
LC40_1039
