LCABL_00720
LCABL_00730
LCABL_00740
LCABL_00750
LCABL_00760
LCABL_00960
LCABL_00970
LCABL_00980
LCABL_00990
LCABL_01000
LCABL_01010
LCABL_01020
LCABL_01030
LCABL_02060
LCABL_02270
LCABL_02280
LCABL_02760
LCABL_02870
LCABL_02990
LCABL_03440
LCABL_03500
LCABL_03540
LCABL_03930
LCABL_04030
LCABL_04060
LCABL_04290
LCABL_05010
LCABL_05410
LCABL_05430
LCABL_05440
LCABL_05450
LCABL_06290
LCABL_06620
LCABL_06830
LCABL_06930
LCABL_07220
LCABL_07340
LCABL_07640
LCABL_08150
LCABL_08210
LCABL_08380
LCABL_08400
LCABL_09310
LCABL_09430
LCABL_10070
LCABL_10210
LCABL_10610
LCABL_10630
LCABL_11300
LCABL_11310
LCABL_11320
LCABL_11330
LCABL_12100
LCABL_12250
LCABL_12550
LCABL_12770
LCABL_12790
LCABL_12800
LCABL_12870
LCABL_13680
LCABL_13800
LCABL_13960
LCABL_14180
LCABL_14190
LCABL_14200
LCABL_14250
LCABL_15240
LCABL_15360
LCABL_15370
LCABL_15380
LCABL_15390
LCABL_15840
LCABL_15850
LCABL_16310
LCABL_16480
LCABL_16490
LCABL_16500
LCABL_16510
LCABL_16520
LCABL_16530
LCABL_16540
LCABL_16550
LCABL_16560
LCABL_16570
LCABL_16580
LCABL_16650
LCABL_16660
LCABL_16670
LCABL_16680
LCABL_16690
LCABL_17130
LCABL_17140
LCABL_17150
LCABL_17330
LCABL_17810
LCABL_17820
LCABL_17940
LCABL_17950
LCABL_18020
LCABL_18290
LCABL_18350
LCABL_18520
LCABL_18700
LCABL_18720
LCABL_18750
LCABL_18990
LCABL_19200
LCABL_19650
LCABL_19660
LCABL_19670
LCABL_19680
LCABL_19690
LCABL_19700
LCABL_19710
LCABL_19720
LCABL_19730
LCABL_19740
LCABL_19750
LCABL_20030
LCABL_20040
LCABL_20050
LCABL_20290
LCABL_20410
LCABL_20650
LCABL_21650
LCABL_21660
LCABL_22020
LCABL_22030
LCABL_22040
LCABL_22050
LCABL_22060
LCABL_22070
LCABL_22100
LCABL_22410
LCABL_22900
LCABL_22910
LCABL_22920
LCABL_22940
LCABL_23150
LCABL_23310
LCABL_23320
LCABL_23330
LCABL_23340
LCABL_23390
LCABL_23430
LCABL_23470
LCABL_23480
LCABL_23570
LCABL_24040
LCABL_24350
LCABL_24800
LCABL_24810
LCABL_24940
LCABL_25210
LCABL_25350
LCABL_25800
LCABL_26500
LCABL_27080
LCABL_27160
LCABL_27230
LCABL_27240
LCABL_27500
LCABL_27570
LCABL_27730
LCABL_28110
LCABL_28660
LCABL_29160
LCABL_29200
LCABL_30160
LCABL_30170
LCABL_31000
HN6_00010
HN6_00022
HN6_00023
HN6_00051
HN6_00093
HN6_00106
HN6_00118
HN6_00130
HN6_00131
HN6_00132
HN6_00133
HN6_00149
HN6_00150
HN6_00151
HN6_00160
HN6_00194
HN6_00201
HN6_00218
HN6_00227
HN6_00253
HN6_00254
HN6_00255
HN6_00260
HN6_00264
HN6_00307
HN6_00349
HN6_00360
HN6_00411
HN6_00425
HN6_00426
HN6_00427
HN6_00429
HN6_00431
HN6_00434
HN6_00435
HN6_00466
HN6_00471
HN6_00472
HN6_00473
HN6_00481
HN6_00487
HN6_00498
HN6_00499
HN6_00504
HN6_00505
HN6_00512
HN6_00553
HN6_00563
HN6_00569
HN6_00584
HN6_00585
HN6_00586
HN6_00587
HN6_00588
HN6_00589
HN6_00590
HN6_00601
HN6_00602
HN6_00603
HN6_00604
HN6_00619
HN6_00640
HN6_00692
HN6_00710
HN6_00717
HN6_00718
HN6_00719
HN6_00726
HN6_00829
HN6_00848
HN6_00849
HN6_00854
HN6_00872
HN6_00908
HN6_00945
HN6_00963
HN6_00964
HN6_00965
HN6_00966
HN6_00978
HN6_01007
HN6_01031
HN6_01041
HN6_01056
HN6_01064
HN6_01072
HN6_01073
HN6_01074
HN6_01075
HN6_01076
HN6_01090
HN6_01107
HN6_01108
HN6_01120
HN6_01126
HN6_01140
HN6_01147
HN6_01150
HN6_01185
HN6_01197
HN6_01208
HN6_01245
HN6_01246
HN6_01250
HN6_01257
HN6_01265
HN6_01266
HN6_01268
HN6_01344
HN6_01353
HN6_01354
HN6_01356
HN6_01415
HN6_01425
HN6_01427
HN6_01435
HN6_01436
HN6_01570
HN6_01571
HN6_01572
HN6_01580
HN6_01581
HN6_01645
HN6_01646
HN6_01658
HN6_01659
HN6_01669
HN6_01670
HN6_01671
LSA_00420
LSA_00430
LSA_00440
LSA_00450
LSA_00460
LSA_00470
LSA_00480
LSA_00490
LSA_00660
LSA_00670
LSA_00680
LSA_00870
LSA_01210
LSA_01520
LSA_01820
LSA_02080
LSA_02550
LSA_03050
LSA_03250
LSA_03840
LSA_03920
LSA_04050
LSA_04300
LSA_04440
LSA_04470
LSA_04660
LSA_04670
LSA_05140
LSA_05270
LSA_05280
LSA_05290
LSA_05300
LSA_05510
LSA_05560
LSA_05720
LSA_05790
LSA_06460
LSA_06490
LSA_06600
LSA_06700
LSA_06760
LSA_06960
LSA_06970
LSA_06980
LSA_06990
LSA_07030
LSA_07110
LSA_07400
LSA_07670
LSA_07780
LSA_08150
LSA_08260
LSA_08270
LSA_08350
LSA_08520
LSA_08570
LSA_08580
LSA_09480
LSA_09870
LSA_09930
LSA_09960
LSA_10470
LSA_10640
LSA_10690
LSA_10860
LSA_10930
LSA_11120
LSA_11390
LSA_11450
LSA_11910
LSA_11920
LSA_11930
LSA_11950
LSA_12040
LSA_12190
LSA_12330
LSA_12380
LSA_12900
LSA_12930
LSA_12940
LSA_13040
LSA_13050
LAR_0032
LAR_0041
LAR_0050
LAR_0108
LAR_0110
LAR_0126
LAR_0128
LAR_0129
LAR_0130
LAR_0131
LAR_0132
LAR_0133
LAR_0134
LAR_0135
LAR_0136
LAR_0137
LAR_0138
LAR_0139
LAR_0140
LAR_0162
LAR_0185
LAR_0192
LAR_0196
LAR_0206
LAR_0212
LAR_0228
LAR_0229
LAR_0230
LAR_0256
LAR_0279
LAR_0281
LAR_0286
LAR_0310
LAR_0333
LAR_0334
LAR_0338
LAR_0360
LAR_0369
LAR_0381
LAR_0382
LAR_0383
LAR_0384
LAR_0415
LAR_0419
LAR_0435
LAR_0445
LAR_0463
LAR_0562
LAR_0586
LAR_0589
LAR_0590
LAR_0591
LAR_0592
LAR_0593
LAR_0594
LAR_0595
LAR_0596
LAR_0597
LAR_0598
LAR_0601
LAR_0608
LAR_0609
LAR_0610
LAR_0611
LAR_0649
LAR_0653
LAR_0663
LAR_0664
LAR_0675
LAR_0688
LAR_0702
LAR_0703
LAR_0708
LAR_0715
LAR_0722
LAR_0751
LAR_0763
LAR_0810
LAR_0824
LAR_0825
LAR_0826
LAR_0827
LAR_0833
LAR_0834
LAR_0853
LAR_0859
LAR_0860
LAR_0861
LAR_0862
LAR_0902
LAR_0918
LAR_0919
LAR_0920
LAR_0922
LAR_0979
LAR_0983
LAR_0993
LAR_1020
LAR_1021
LAR_1027
LAR_1030
LAR_1031
LAR_1094
LAR_1100
LAR_1113
LAR_1133
LAR_1136
LAR_1139
LAR_1206
LAR_1229
LAR_1350
LAR_1357
LAR_1358
LAR_1373
LAR_1406
LAR_1439
LAR_1440
LAR_1444
LAR_1448
LAR_1459
LAR_1460
LAR_1489
LAR_1519
LAR_1588
LAR_1589
LAR_1590
LAR_1591
LAR_1592
LAR_1600
LAR_1618
LAR_1653
LAR_1654
LAR_1676
LAR_1677
LAR_1717
LAR_1721
LAR_1750
LAR_1767
LAR_1782
LAR_1785
LAR_1793
LAR_1802
LAR_1814
LVIS_0040
LVIS_0066
LVIS_0067
LVIS_0079
LVIS_0094
LVIS_0097
LVIS_0119
LVIS_0141
LVIS_0143
LVIS_0144
LVIS_0228
LVIS_0254
LVIS_0300
LVIS_0413
LVIS_0450
LVIS_0460
LVIS_0476
LVIS_0491
LVIS_0514
LVIS_0522
LVIS_0538
LVIS_0548
LVIS_0570
LVIS_0574
LVIS_0643
LVIS_0661
LVIS_0662
LVIS_0663
LVIS_0664
LVIS_0714
LVIS_0750
LVIS_0764
LVIS_0765
LVIS_0803
LVIS_0858
LVIS_0859
LVIS_0860
LVIS_0861
LVIS_0869
LVIS_0906
LVIS_0926
LVIS_0927
LVIS_0928
LVIS_0930
LVIS_0954
LVIS_0960
LVIS_0975
LVIS_0992
LVIS_0996
LVIS_1271
LVIS_1287
LVIS_1312
LVIS_1332
LVIS_1344
LVIS_1345
LVIS_1355
LVIS_1363
LVIS_1365
LVIS_1367
LVIS_1407
LVIS_1408
LVIS_1409
LVIS_1410
LVIS_1420
LVIS_1430
LVIS_1433
LVIS_1501
LVIS_1523
LVIS_1585
LVIS_1593
LVIS_1628
LVIS_1635
LVIS_1636
LVIS_1637
LVIS_1638
LVIS_1649
LVIS_1650
LVIS_1651
LVIS_1652
LVIS_1653
LVIS_1656
LVIS_1669
LVIS_1737
LVIS_1764
LVIS_1811
LVIS_1836
LVIS_1847
LVIS_1877
LVIS_1907
LVIS_1908
LVIS_1909
LVIS_1920
LVIS_1951
LVIS_1961
LVIS_1987
LVIS_1988
LVIS_2026
LVIS_2027
LVIS_2042
LVIS_2058
LVIS_2138
LVIS_2169
LVIS_2218
LVIS_2278
LC40_0022
LC40_0064
LC40_0088
LC40_0089
LC40_0091
LC40_0094
LC40_0095
LC40_0096
LC40_0097
LC40_0099
LC40_0132
LC40_0139
LC40_0144
LC40_0173
LC40_0191
LC40_0201
LC40_0214
LC40_0216
LC40_0225
LC40_0226
LC40_0236
LC40_0240
LC40_0243
LC40_0244
LC40_0245
LC40_0246
LC40_0247
LC40_0257
LC40_0258
LC40_0259
LC40_0272
LC40_0290
LC40_0292
LC40_0305
LC40_0316
LC40_0397
LC40_0410
LC40_0413
LC40_0438
LC40_0473
LC40_0480
LC40_0481
LC40_0488
LC40_0489
LC40_0490
LC40_0502
LC40_0509
LC40_0510
LC40_0511
LC40_0512
LC40_0513
LC40_0514
LC40_0519
LC40_0526
LC40_0527
LC40_0528
LC40_0532
LC40_0535
LC40_0536
LC40_0537
LC40_0541
LC40_0542
LC40_0544
LC40_0559
LC40_0560
LC40_0562
LC40_0563
LC40_0564
LC40_0571
LC40_0606
LC40_0614
LC40_0617
LC40_0625
LC40_0626
LC40_0628
LC40_0629
LC40_0632
LC40_0633
LC40_0640
LC40_0643
LC40_0657
LC40_0659
LC40_0670
LC40_0683
LC40_0713
LC40_0714
LC40_0717
LC40_0718
LC40_0740
LC40_0741
LC40_0742
LC40_0743
LC40_0744
LC40_0745
LC40_0746
LC40_0772
LC40_0773
LC40_0774
LC40_0816
LC40_0824
LC40_0825
LC40_0861
LC40_0891
LC40_0923
LC40_0943
LC40_0949
LC40_0964
LC40_0999
LC40_1008
LC40_1015
LC40_1018
LC40_1028
LC40_1029
LC40_1033
LC40_1035
LC40_1048
LC40_1053
LC40_1069
LC40_1078
LC40_1091
LC40_1092
LC40_1121
LC40_1122
LC40_1164
LGAS_0041
LGAS_0049
LGAS_0051
LGAS_0101
LGAS_0135
LGAS_0152
LGAS_0167
LGAS_0197
LGAS_0212
LGAS_0229
LGAS_0256
LGAS_0269
LGAS_0311
LGAS_0327
LGAS_0332
LGAS_0347
LGAS_0348
LGAS_0350
LGAS_0352
LGAS_0391
LGAS_0397
LGAS_0417
LGAS_0456
LGAS_0467
LGAS_0472
LGAS_0557
LGAS_0566
LGAS_0754
LGAS_0766
LGAS_0772
LGAS_0799
LGAS_0805
LGAS_0806
LGAS_0817
LGAS_0838
LGAS_0847
LGAS_0848
LGAS_0849
LGAS_0851
LGAS_0881
LGAS_0882
LGAS_0998
LGAS_1033
LGAS_1034
LGAS_1035
LGAS_1036
LGAS_1067
LGAS_1074
LGAS_1075
LGAS_1076
LGAS_1077
LGAS_1078
LGAS_1128
LGAS_1188
LGAS_1256
LGAS_1263
LGAS_1305
LGAS_1306
LGAS_1307
LGAS_1308
LGAS_1319
LGAS_1320
LGAS_1326
LGAS_1349
LGAS_1372
LGAS_1373
LGAS_1374
LGAS_1380
LGAS_1510
LGAS_1561
LGAS_1692
LGAS_1760
LGAS_1761
LGAS_1786
LGAS_1845
LGAS_1881
LGAS_1892
LJ0043
LJ0051
LJ0053
LJ0103
LJ0135
LJ0149
LJ0164
LJ0195
LJ0209
LJ0227
LJ0263
LJ0274
LJ0357
LJ0371
LJ0375
LJ0380
LJ0405
LJ0406
LJ0408
LJ0443
LJ0470
LJ0511
LJ0537
LJ0538
LJ0606
LJ0677
LJ0687
LJ0689
LJ0712
LJ0730
LJ0798
LJ0808
LJ0828
LJ0851
LJ0861
LJ0862
LJ0872
LJ0873
LJ0874
LJ0875
LJ0915
LJ0916
LJ0924
LJ0987
LJ1079
LJ1080
LJ1120
LJ1124
LJ1169
LJ1205
LJ1206
LJ1207
LJ1208
LJ1246
LJ1251
LJ1266
LJ1267
LJ1328
LJ1329
LJ1390
LJ1401
LJ1403
LJ1404
LJ1405
LJ1416
LJ1484
LJ1495
LJ1496
LJ1502
LJ1529
LJ1535
LJ1547
LJ1607
LJ1608
LJ1609
LJ1615
LJ1715
LJ1766
LJ1843
LJ1852
LBHH_0044
LBHH_0140
LBHH_0165
LBHH_0190
LBHH_0200
LBHH_0221
LBHH_0234
LBHH_0240
LBHH_0256
LBHH_0299
LBHH_0315
LBHH_0318
LBHH_0336
LBHH_0337
LBHH_0393
LBHH_0430
LBHH_0432
LBHH_0470
LBHH_0480
LBHH_0534
LBHH_0535
LBHH_0536
LBHH_0537
LBHH_0538
LBHH_0539
LBHH_0540
LBHH_0541
LBHH_0542
LBHH_0543
LBHH_0599
LBHH_0609
LBHH_0627
LBHH_0630
LBHH_0637
LBHH_0674
LBHH_0675
LBHH_0682
LBHH_0742
LBHH_0753
LBHH_0765
LBHH_0772
LBHH_0801
LBHH_0808
LBHH_0819
LBHH_0831
LBHH_0832
LBHH_0848
LBHH_0849
LBHH_0850
LBHH_0852
LBHH_0881
LBHH_0882
LBHH_0883
LBHH_0884
LBHH_0925
LBHH_0980
LBHH_0981
LBHH_0986
LBHH_0990
LBHH_1007
LBHH_1080
LBHH_1113
LBHH_1152
LBHH_1153
LBHH_1171
LBHH_1205
LBHH_1207
LBHH_1208
LBHH_1223
LBHH_1238
LBHH_1248
LBHH_1249
LBHH_1250
LBHH_1251
LBHH_1252
LBHH_1253
LBHH_1254
LBHH_1255
LBHH_1256
LBHH_1281
LBHH_1321
LBHH_1369
LBHH_1376
LBHH_1377
LBHH_1396
LBHH_1415
LBHH_1416
LBHH_1417
LBHH_1433
LBHH_1434
LBHH_1435
LBHH_1459
LBHH_1489
LBHH_1490
LBHH_1491
LBHH_1504
LBHH_1530
LBHH_1581
LBHH_1609
LBHH_1624
LBHH_1636
LBHH_1706
LBHH_1724
LBHH_1734
LBHH_1814
LBHH_1858
LBHH_1888
LBHH_1898
LBHH_1899
LBHH_1900
LBHH_1902
LBHH_1955
LBHH_1959
LBHH_2029
LBHH_p0008
