LCABL_01010
LCABL_01030
LCABL_20650
LCABL_22070
LCABL_23340
HN6_00051
HN6_00160
HN6_00260
HN6_00872
LSA_00430
LSA_00490
LSA_02330
LAR_0126
LAR_0591
LAR_0598
LVIS_0491
LC40_0245
LC40_0488
LC40_0489
LC40_0490
LC40_0559
LC40_0564
LC40_0606
LC40_0614
LC40_0625
LC40_0626
LC40_0665
LC40_0670
LGAS_1077
LGAS_1078
LJ1124
LBHH_0742
LBHH_0848
LBHH_1248
LBHH_1255
