LCABL_01690
LCABL_03280
LCABL_03660
LCABL_08720
LCABL_14260
LCABL_17030
LCABL_19450
LCABL_21080
LCABL_21090
LCABL_21110
LCABL_21120
LCABL_21130
LCABL_21470
LCABL_22420
LCABL_22430
LCABL_22440
LCABL_22450
LCABL_22460
LCABL_23130
LCABL_29700
HN6_00438
HN6_00774
HN6_01317
HN6_01417
HN6_01418
HN6_01419
HN6_01420
HN6_01421
HN6_01632
LSA_05020
LSA_05980
LSA_07120
LAR_0017
LAR_0867
LAR_1203
LVIS_0024
LVIS_0851
LVIS_1489
LVIS_1765
LVIS_1766
LVIS_1767
LVIS_1768
LVIS_1769
LVIS_1770
LVIS_1959
LVIS_1995
LVIS_2002
LC40_0765
LC40_0849
LGAS_0438
LGAS_1025
LGAS_1452
LGAS_1632
LGAS_1769
LGAS_1856
LJ0492
LJ0529
LJ0665
LJ1157
LJ1197
LJ1678
LBHH_0507
LBHH_0632
LBHH_0892
LBHH_1658
