LCABL_02540
LCABL_08370
LCABL_10420
LCABL_11370
LCABL_16820
LCABL_18160
LCABL_18190
LCABL_18960
LCABL_24730
LCABL_26510
LCABL_28530
LCABL_31250
HN6_00480
HN6_00557
HN6_00558
HN6_00724
HN6_00986
HN6_01186
HN6_01474
LSA_04570
LSA_05080
LSA_05310
LSA_06330
LSA_06790
LSA_06810
LSA_07200
LSA_09050
LSA_11130
LSA_13440
LSA_13530
LAR_0295
LAR_0354
LAR_0516
LAR_0874
LAR_1088
LAR_1090
LAR_1156
LAR_1374
LAR_1811
LAR_1818
LVIS_0282
LVIS_0586
LVIS_0627
LVIS_0667
LVIS_0833
LVIS_0950
LVIS_1015
LVIS_1227
LVIS_1670
LVIS_2298
LVIS_2312
LC40_0233
LC40_0799
LC40_0800
LC40_0833
LC40_0956
LC40_1169
LGAS_0310
LGAS_0354
LGAS_0416
LGAS_0782
LGAS_0785
LGAS_0790
LGAS_1015
LGAS_1103
LGAS_1304
LGAS_1331
LGAS_1396
LGAS_1896
LJ0356
LJ0388
LJ0408c
LJ0469
LJ0846
LJ0876
LJ1187
LJ1291
LJ1511
LJ1516
LJ1519
LJ1629
LJ1856
LBHH_0298
LBHH_0338
LBHH_0392
LBHH_0425
LBHH_0592
LBHH_0782
LBHH_0788
LBHH_0877
LBHH_0900
LBHH_1440
LBHH_1964
LBHH_2032
