LCABL_10700
LCABL_10710
LCABL_12190
LCABL_12200
LCABL_15670
LCABL_19280
LCABL_21600
LCABL_27140
LCABL_28050
HN6_00450
HN6_00907
HN6_00975
HN6_00976
HN6_00977
HN6_01124
HN6_01125
HN6_01144
HN6_01145
HN6_01160
HN6_01312
LSA_03260
LSA_04250
LSA_05180
LSA_05190
LSA_06120
LSA_09610
LSA_10910
LSA_10920
LAR_0252
LAR_0372
LAR_0373
LAR_0634
LAR_0899
LAR_1181
LAR_1355
LAR_1356
LAR_1517
LVIS_0516
LVIS_0648
LVIS_0649
LVIS_1042
LVIS_1383
LVIS_1508
LVIS_1633
LVIS_1634
LVIS_1762
LC40_0153
LC40_0248
LC40_0429
LC40_0841
LC40_0947
LC40_0948
LC40_1046
LGAS_0271
LGAS_0871
LGAS_1317
LGAS_1318
LGAS_1421
LGAS_1515
LGAS_1516
LGAS_1665
LGAS_1680
LJ0277
LJ0616
LJ0863
LJ0864
LJ1070
LJ1150
LJ1651
LJ1720
LJ1721
LBHH_0258
LBHH_0560
LBHH_1049
LBHH_1163
LBHH_1431
LBHH_1432
LBHH_1586
LBHH_1587
LBHH_1704
